% 1. Title: Solar Cell Training
% 
% 2. Sources:
%      (a) Creator: Richard Holzeis
%      (b) Date: May, 2012
% 
@RELATION solar_rel

@ATTRIBUTE measurement	NUMERIC
@ATTRIBUTE time   		NUMERIC

@DATA
0,0000
0,0100
0,0200
0,0300
0,0400
0,0500
0,0600
100,0700
200,0800
300,0900
400,1000
500,1100
600,1200
600,1300
500,1400
400,1500
300,1600
200,1700
100,1800
0,1900
0,2000
0,2100
0,2200
0,2300
